<?xml version="1.0" encoding="UTF-8" standalone="no"?>
<!-- Creator: CorelDRAW -->

<svg
   xmlns:dc="http://purl.org/dc/elements/1.1/"
   xmlns:cc="http://creativecommons.org/ns#"
   xmlns:rdf="http://www.w3.org/1999/02/22-rdf-syntax-ns#"
   xmlns:svg="http://www.w3.org/2000/svg"
   xmlns="http://www.w3.org/2000/svg"
   xmlns:sodipodi="http://sodipodi.sourceforge.net/DTD/sodipodi-0.dtd"
   xmlns:inkscape="http://www.inkscape.org/namespaces/inkscape"
   xml:space="preserve"
   width="300px"
   height="300px"
   style="shape-rendering:geometricPrecision; text-rendering:geometricPrecision; image-rendering:optimizeQuality; fill-rule:evenodd; clip-rule:evenodd"
   viewBox="0 0 300 300"
   id="svg2"
   version="1.1"
   inkscape:version="0.91 r13725"
   sodipodi:docname="color_full_no_active_00.svg"><metadata
     id="metadata18"><rdf:RDF><cc:Work
         rdf:about=""><dc:format>image/svg+xml</dc:format><dc:type
           rdf:resource="http://purl.org/dc/dcmitype/StillImage" /><dc:title></dc:title></cc:Work></rdf:RDF></metadata><sodipodi:namedview
     pagecolor="#ffffff"
     bordercolor="#666666"
     borderopacity="1"
     objecttolerance="10"
     gridtolerance="10"
     guidetolerance="10"
     inkscape:pageopacity="0"
     inkscape:pageshadow="2"
     inkscape:window-width="1650"
     inkscape:window-height="405"
     id="namedview16"
     showgrid="false"
     inkscape:zoom="0.78666667"
     inkscape:cx="-78.813559"
     inkscape:cy="150"
     inkscape:window-x="87"
     inkscape:window-y="52"
     inkscape:window-maximized="0"
     inkscape:current-layer="svg2" /><defs
     id="defs4"><style
       type="text/css"
       id="style6"><![CDATA[
    .fil0 {fill:black}
    .fil1 {fill:#FF6669}
   ]]></style><style
       id="style6-6"
       type="text/css"><![CDATA[
    .fil0 {fill:black}
    .fil1 {fill:#FF6669}
   ]]></style><style
       id="style3360"
       type="text/css"><![CDATA[
    .fil1 {fill:black}
    .fil0 {fill:#FEDFA3}
   ]]></style><style
       id="style3383"
       type="text/css"><![CDATA[
    .fil0 {fill:black}
    .fil1 {fill:#FF6669}
   ]]></style><style
       id="style6-4"
       type="text/css"><![CDATA[
    .fil0 {fill:black}
    .fil1 {fill:#FF6669}
   ]]></style><style
       type="text/css"
       id="style6-6-9"><![CDATA[
    .fil0 {fill:black}
    .fil1 {fill:#FF6669}
   ]]></style><style
       type="text/css"
       id="style3360-5"><![CDATA[
    .fil1 {fill:black}
    .fil0 {fill:#FEDFA3}
   ]]></style><style
       id="style6-68"
       type="text/css"><![CDATA[
    .fil0 {fill:black}
    .fil1 {fill:#FF6669}
   ]]></style><style
       type="text/css"
       id="style6-6-2"><![CDATA[
    .fil0 {fill:black}
    .fil1 {fill:#FF6669}
   ]]></style><style
       id="style3450"
       type="text/css"><![CDATA[
    .fil0 {fill:black}
    .fil1 {fill:#FEDFA3}
   ]]></style><style
       id="style3489"
       type="text/css"><![CDATA[
    .fil0 {fill:black}
    .fil1 {fill:#FF6669}
   ]]></style><style
       id="style3528"
       type="text/css"><![CDATA[
    .fil0 {fill:black}
    .fil1 {fill:#FEDFA3}
   ]]></style><style
       id="style3567"
       type="text/css"><![CDATA[
    .fil0 {fill:black}
    .fil1 {fill:#FF6669}
   ]]></style><style
       id="style3606"
       type="text/css"><![CDATA[
    .fil0 {fill:black}
    .fil1 {fill:#FEDFA3}
   ]]></style><style
       id="style3645"
       type="text/css"><![CDATA[
    .fil0 {fill:black}
    .fil1 {fill:#FF6669}
   ]]></style><style
       id="style3684"
       type="text/css"><![CDATA[
    .fil0 {fill:black}
    .fil1 {fill:#FEDFA3}
   ]]></style><style
       id="style3723"
       type="text/css"><![CDATA[
    .fil0 {fill:black}
    .fil1 {fill:#FF6669}
   ]]></style><style
       id="style3762"
       type="text/css"><![CDATA[
    .fil0 {fill:black}
    .fil1 {fill:#FEDFA3}
   ]]></style><style
       id="style3801"
       type="text/css"><![CDATA[
    .fil0 {fill:black}
    .fil1 {fill:#FF6669}
   ]]></style><style
       id="style3840"
       type="text/css"><![CDATA[
    .fil0 {fill:black}
    .fil1 {fill:#FEDFA3}
   ]]></style><style
       id="style3879"
       type="text/css"><![CDATA[
    .fil0 {fill:black}
    .fil1 {fill:#FF6669}
   ]]></style><style
       id="style3918"
       type="text/css"><![CDATA[
    .fil0 {fill:black}
    .fil1 {fill:#FEDFA3}
   ]]></style><style
       id="style3957"
       type="text/css"><![CDATA[
    .fil0 {fill:black}
    .fil1 {fill:#FFEBC2}
   ]]></style><style
       id="style4010"
       type="text/css"><![CDATA[
    .fil0 {fill:black}
    .fil1 {fill:#FEDFA3}
   ]]></style><style
       id="style6-1"
       type="text/css"><![CDATA[
    .fil0 {fill:black}
    .fil1 {fill:white}
    .fil4 {fill:#BA1114}
    .fil3 {fill:#FFD37A}
    .fil2 {fill:#FFD9DA}
   ]]></style><style
       type="text/css"
       id="style3366"><![CDATA[
    .fil0 {fill:black}
    .fil1 {fill:white}
    .fil4 {fill:#BA1114}
    .fil3 {fill:#FFD37A}
    .fil2 {fill:#FFD9DA}
   ]]></style><style
       id="style4128"
       type="text/css"><![CDATA[
    .fil0 {fill:black}
    .fil1 {fill:#FFD37A}
   ]]></style><style
       id="style4185"
       type="text/css"><![CDATA[
    .fil2 {fill:black}
    .fil3 {fill:#999999}
    .fil1 {fill:#B2B2B2}
    .fil0 {fill:#CCCCCC}
   ]]></style></defs><g
     style="clip-rule:evenodd;fill-rule:evenodd;image-rendering:optimizeQuality;shape-rendering:geometricPrecision;text-rendering:geometricPrecision"
     id="g4216"
     transform="translate(0,6.1035156e-6)"><g
       id="Layer_x0020_1"><metadata
         id="CorelCorpID_0Corel-Layer" /><circle
         id="circle4189"
         r="132.39999"
         cy="150"
         cx="150.00101"
         class="fil0"
         style="fill:#cccccc" /><path
         id="path4191"
         d="M 150,150 C 150.4815,116.991 133.4685,108.5235 103.722,100.059 76.32,92.2605 50.511,78.888 57.0885,55.686 45.852,66.732 36.7245,79.1145 30.063,93.4035 c 1.9125,24.042 30.7635,28.122 59.166,25.8915 30.834,-2.421 49.7295,-0.4065 60.771,30.705 z"
         class="fil1"
         inkscape:connector-curvature="0"
         style="fill:#b2b2b2" /><path
         id="path4193"
         d="m 150,150 c 23.682,-23.001 17.64,-41.0175 2.592,-68.037 -13.863,-24.8895 -22.6575,-52.596 -1.599,-64.3515 -15.7575,-0.135 -30.9675,2.166 -45.7815,7.5615 -15.648,18.351 1.8675,41.637 23.529,60.144 C 152.256,105.408 164.1915,120.1935 150,150 Z"
         class="fil1"
         inkscape:connector-curvature="0"
         style="fill:#b2b2b2" /><path
         id="path4195"
         d="m 150,150 c 33.0105,0.4815 41.478,-16.5315 49.9425,-46.278 7.797,-27.402 21.1695,-53.211 44.373,-46.6335 -11.0475,-11.238 -23.43,-20.364 -37.719,-27.0255 -24.042,1.9125 -28.1205,30.7635 -25.8915,59.166 2.421,30.834 0.4065,49.7295 -30.705,60.771 z"
         class="fil1"
         inkscape:connector-curvature="0"
         style="fill:#b2b2b2" /><path
         id="path4197"
         d="m 150,150 c 23.0025,23.682 41.019,17.64 68.0385,2.5905 24.8895,-13.863 52.596,-22.656 64.3515,-1.5975 0.135,-15.7575 -2.1675,-30.9675 -7.5615,-45.7815 -18.3525,-15.648 -41.637,1.8675 -60.144,23.529 C 194.5935,152.256 179.808,164.1915 150,150 Z"
         class="fil1"
         inkscape:connector-curvature="0"
         style="fill:#b2b2b2" /><path
         id="path4199"
         d="m 150,150 c -0.48,33.0105 16.5315,41.478 46.278,49.9425 27.4035,7.797 53.2125,21.1695 46.6335,44.373 11.238,-11.0475 20.3655,-23.43 27.0255,-37.719 -1.911,-24.042 -30.762,-28.122 -59.166,-25.8915 C 179.937,183.126 161.043,181.1115 150,150 Z"
         class="fil1"
         inkscape:connector-curvature="0"
         style="fill:#b2b2b2" /><path
         id="path4201"
         d="m 150,150 c -23.6805,23.0025 -17.6385,41.019 -2.5905,68.0385 13.863,24.8895 22.6575,52.596 1.599,64.3515 15.7575,0.1335 30.9675,-2.1675 45.7815,-7.5615 15.648,-18.3525 -1.869,-41.637 -23.5305,-60.1455 C 147.7455,194.592 135.81,179.808 150,150 Z"
         class="fil1"
         inkscape:connector-curvature="0"
         style="fill:#b2b2b2" /><path
         id="path4203"
         d="m 150,150 c -33.009,-0.48 -41.4765,16.5315 -49.941,46.278 -7.797,27.402 -21.171,53.2125 -44.373,46.6335 11.0475,11.238 23.4285,20.3655 37.719,27.0255 24.042,-1.911 28.1205,-30.762 25.89,-59.166 C 116.874,179.937 118.8885,161.043 150,150 Z"
         class="fil1"
         inkscape:connector-curvature="0"
         style="fill:#b2b2b2" /><path
         id="path4205"
         d="m 150,150 c -23.001,-23.6805 -41.0175,-17.6385 -68.037,-2.5905 -24.8895,13.863 -52.596,22.6575 -64.3515,1.599 -0.135,15.7575 2.1675,30.9675 7.5615,45.78 C 43.524,210.438 66.81,192.921 85.317,171.2595 105.408,147.7455 120.1935,135.8085 150,150 Z"
         class="fil1"
         inkscape:connector-curvature="0"
         style="fill:#b2b2b2" /><rect
         id="rect4207"
         height="0.75"
         width="0.75"
         class="fil2"
         x="0"
         y="0"
         style="fill:#000000" /><circle
         id="circle4209"
         r="7.9176102"
         cy="150"
         cx="150.00101"
         class="fil3"
         style="fill:#999999" /></g></g></svg>