<?xml version="1.0" encoding="UTF-8" standalone="no"?>
<!-- Creator: CorelDRAW -->

<svg
   xmlns:dc="http://purl.org/dc/elements/1.1/"
   xmlns:cc="http://creativecommons.org/ns#"
   xmlns:rdf="http://www.w3.org/1999/02/22-rdf-syntax-ns#"
   xmlns:svg="http://www.w3.org/2000/svg"
   xmlns="http://www.w3.org/2000/svg"
   xmlns:sodipodi="http://sodipodi.sourceforge.net/DTD/sodipodi-0.dtd"
   xmlns:inkscape="http://www.inkscape.org/namespaces/inkscape"
   xml:space="preserve"
   width="300px"
   height="300px"
   style="shape-rendering:geometricPrecision; text-rendering:geometricPrecision; image-rendering:optimizeQuality; fill-rule:evenodd; clip-rule:evenodd"
   viewBox="0 0 300 300"
   id="svg2"
   version="1.1"
   inkscape:version="0.91 r13725"
   sodipodi:docname="color_full_active05.svg"><metadata
     id="metadata18"><rdf:RDF><cc:Work
         rdf:about=""><dc:format>image/svg+xml</dc:format><dc:type
           rdf:resource="http://purl.org/dc/dcmitype/StillImage" /><dc:title /></cc:Work></rdf:RDF></metadata><sodipodi:namedview
     pagecolor="#ffffff"
     bordercolor="#666666"
     borderopacity="1"
     objecttolerance="10"
     gridtolerance="10"
     guidetolerance="10"
     inkscape:pageopacity="0"
     inkscape:pageshadow="2"
     inkscape:window-width="1858"
     inkscape:window-height="1057"
     id="namedview16"
     showgrid="false"
     inkscape:zoom="1.5733333"
     inkscape:cx="177.34795"
     inkscape:cy="139.59188"
     inkscape:window-x="54"
     inkscape:window-y="-8"
     inkscape:window-maximized="1"
     inkscape:current-layer="svg2" /><defs
     id="defs4"><style
       type="text/css"
       id="style6"><![CDATA[
    .fil0 {fill:black}
    .fil1 {fill:#FF6669}
   ]]></style><style
       id="style6-6"
       type="text/css"><![CDATA[
    .fil0 {fill:black}
    .fil1 {fill:#FF6669}
   ]]></style><style
       id="style3360"
       type="text/css"><![CDATA[
    .fil1 {fill:black}
    .fil0 {fill:#FEDFA3}
   ]]></style><style
       id="style3383"
       type="text/css"><![CDATA[
    .fil0 {fill:black}
    .fil1 {fill:#FF6669}
   ]]></style><style
       id="style6-4"
       type="text/css"><![CDATA[
    .fil0 {fill:black}
    .fil1 {fill:#FF6669}
   ]]></style><style
       type="text/css"
       id="style6-6-9"><![CDATA[
    .fil0 {fill:black}
    .fil1 {fill:#FF6669}
   ]]></style><style
       type="text/css"
       id="style3360-5"><![CDATA[
    .fil1 {fill:black}
    .fil0 {fill:#FEDFA3}
   ]]></style><style
       id="style6-68"
       type="text/css"><![CDATA[
    .fil0 {fill:black}
    .fil1 {fill:#FF6669}
   ]]></style><style
       type="text/css"
       id="style6-6-2"><![CDATA[
    .fil0 {fill:black}
    .fil1 {fill:#FF6669}
   ]]></style><style
       id="style6-3"
       type="text/css"><![CDATA[
    .fil0 {fill:black}
    .fil1 {fill:#FF6669}
   ]]></style><style
       type="text/css"
       id="style6-6-7"><![CDATA[
    .fil0 {fill:black}
    .fil1 {fill:#FF6669}
   ]]></style><style
       type="text/css"
       id="style3360-2"><![CDATA[
    .fil1 {fill:black}
    .fil0 {fill:#FEDFA3}
   ]]></style><style
       type="text/css"
       id="style3383-0"><![CDATA[
    .fil0 {fill:black}
    .fil1 {fill:#FF6669}
   ]]></style><style
       type="text/css"
       id="style6-4-2"><![CDATA[
    .fil0 {fill:black}
    .fil1 {fill:#FF6669}
   ]]></style><style
       id="style6-6-9-3"
       type="text/css"><![CDATA[
    .fil0 {fill:black}
    .fil1 {fill:#FF6669}
   ]]></style><style
       id="style3360-5-4"
       type="text/css"><![CDATA[
    .fil1 {fill:black}
    .fil0 {fill:#FEDFA3}
   ]]></style><style
       type="text/css"
       id="style6-68-5"><![CDATA[
    .fil0 {fill:black}
    .fil1 {fill:#FF6669}
   ]]></style><style
       id="style6-6-2-0"
       type="text/css"><![CDATA[
    .fil0 {fill:black}
    .fil1 {fill:#FF6669}
   ]]></style><style
       type="text/css"
       id="style3450"><![CDATA[
    .fil0 {fill:black}
    .fil1 {fill:#FEDFA3}
   ]]></style><style
       type="text/css"
       id="style3489"><![CDATA[
    .fil0 {fill:black}
    .fil1 {fill:#FF6669}
   ]]></style><style
       type="text/css"
       id="style3528"><![CDATA[
    .fil0 {fill:black}
    .fil1 {fill:#FEDFA3}
   ]]></style><style
       type="text/css"
       id="style3567"><![CDATA[
    .fil0 {fill:black}
    .fil1 {fill:#FF6669}
   ]]></style><style
       type="text/css"
       id="style3606"><![CDATA[
    .fil0 {fill:black}
    .fil1 {fill:#FEDFA3}
   ]]></style><style
       type="text/css"
       id="style3645"><![CDATA[
    .fil0 {fill:black}
    .fil1 {fill:#FF6669}
   ]]></style><style
       type="text/css"
       id="style3684"><![CDATA[
    .fil0 {fill:black}
    .fil1 {fill:#FEDFA3}
   ]]></style><style
       type="text/css"
       id="style3723"><![CDATA[
    .fil0 {fill:black}
    .fil1 {fill:#FF6669}
   ]]></style><style
       type="text/css"
       id="style3762"><![CDATA[
    .fil0 {fill:black}
    .fil1 {fill:#FEDFA3}
   ]]></style><style
       type="text/css"
       id="style3801"><![CDATA[
    .fil0 {fill:black}
    .fil1 {fill:#FF6669}
   ]]></style><style
       type="text/css"
       id="style3840"><![CDATA[
    .fil0 {fill:black}
    .fil1 {fill:#FEDFA3}
   ]]></style><style
       type="text/css"
       id="style3879"><![CDATA[
    .fil0 {fill:black}
    .fil1 {fill:#FF6669}
   ]]></style><style
       type="text/css"
       id="style3918"><![CDATA[
    .fil0 {fill:black}
    .fil1 {fill:#FEDFA3}
   ]]></style><style
       type="text/css"
       id="style3957"><![CDATA[
    .fil0 {fill:black}
    .fil1 {fill:#FFEBC2}
   ]]></style><style
       type="text/css"
       id="style4010"><![CDATA[
    .fil0 {fill:black}
    .fil1 {fill:#FEDFA3}
   ]]></style><style
       type="text/css"
       id="style6-1"><![CDATA[
    .fil0 {fill:black}
    .fil1 {fill:white}
    .fil4 {fill:#BA1114}
    .fil3 {fill:#FFD37A}
    .fil2 {fill:#FFD9DA}
   ]]></style><style
       id="style3366"
       type="text/css"><![CDATA[
    .fil0 {fill:black}
    .fil1 {fill:white}
    .fil4 {fill:#BA1114}
    .fil3 {fill:#FFD37A}
    .fil2 {fill:#FFD9DA}
   ]]></style><style
       type="text/css"
       id="style4128"><![CDATA[
    .fil0 {fill:black}
    .fil1 {fill:#FFD37A}
   ]]></style><style
       type="text/css"
       id="style4185"><![CDATA[
    .fil2 {fill:black}
    .fil3 {fill:#999999}
    .fil1 {fill:#B2B2B2}
    .fil0 {fill:#CCCCCC}
   ]]></style><style
       id="style6-14"
       type="text/css"><![CDATA[
    .fil0 {fill:black}
    .fil1 {fill:#FF6669}
   ]]></style><style
       type="text/css"
       id="style6-6-20"><![CDATA[
    .fil0 {fill:black}
    .fil1 {fill:#FF6669}
   ]]></style><style
       type="text/css"
       id="style3360-0"><![CDATA[
    .fil1 {fill:black}
    .fil0 {fill:#FEDFA3}
   ]]></style><style
       type="text/css"
       id="style3383-5"><![CDATA[
    .fil0 {fill:black}
    .fil1 {fill:#FF6669}
   ]]></style><style
       type="text/css"
       id="style6-4-6"><![CDATA[
    .fil0 {fill:black}
    .fil1 {fill:#FF6669}
   ]]></style><style
       id="style6-6-9-2"
       type="text/css"><![CDATA[
    .fil0 {fill:black}
    .fil1 {fill:#FF6669}
   ]]></style><style
       id="style3360-5-1"
       type="text/css"><![CDATA[
    .fil1 {fill:black}
    .fil0 {fill:#FEDFA3}
   ]]></style><style
       id="style6-0"
       type="text/css"><![CDATA[
    .fil0 {fill:black}
    .fil1 {fill:#FF6669}
   ]]></style><style
       type="text/css"
       id="style6-6-1"><![CDATA[
    .fil0 {fill:black}
    .fil1 {fill:#FF6669}
   ]]></style><style
       type="text/css"
       id="style3360-9"><![CDATA[
    .fil1 {fill:black}
    .fil0 {fill:#FEDFA3}
   ]]></style><style
       type="text/css"
       id="style3383-2"><![CDATA[
    .fil0 {fill:black}
    .fil1 {fill:#FF6669}
   ]]></style><style
       id="style6-61"
       type="text/css"><![CDATA[
    .fil0 {fill:black}
    .fil1 {fill:#FF6669}
   ]]></style><style
       type="text/css"
       id="style6-6-27"><![CDATA[
    .fil0 {fill:black}
    .fil1 {fill:#FF6669}
   ]]></style><style
       type="text/css"
       id="style3360-00"><![CDATA[
    .fil1 {fill:black}
    .fil0 {fill:#FEDFA3}
   ]]></style><style
       type="text/css"
       id="style3383-7"><![CDATA[
    .fil0 {fill:black}
    .fil1 {fill:#FF6669}
   ]]></style><style
       type="text/css"
       id="style6-4-9"><![CDATA[
    .fil0 {fill:black}
    .fil1 {fill:#FF6669}
   ]]></style><style
       id="style6-6-9-0"
       type="text/css"><![CDATA[
    .fil0 {fill:black}
    .fil1 {fill:#FF6669}
   ]]></style><style
       id="style3360-5-12"
       type="text/css"><![CDATA[
    .fil1 {fill:black}
    .fil0 {fill:#FEDFA3}
   ]]></style><style
       type="text/css"
       id="style6-68-6"><![CDATA[
    .fil0 {fill:black}
    .fil1 {fill:#FF6669}
   ]]></style><style
       id="style6-6-2-2"
       type="text/css"><![CDATA[
    .fil0 {fill:black}
    .fil1 {fill:#FF6669}
   ]]></style><style
       type="text/css"
       id="style3450-9"><![CDATA[
    .fil0 {fill:black}
    .fil1 {fill:#FEDFA3}
   ]]></style><style
       id="style6-7"
       type="text/css"><![CDATA[
    .fil0 {fill:black}
    .fil1 {fill:#FF6669}
   ]]></style><style
       type="text/css"
       id="style6-6-8"><![CDATA[
    .fil0 {fill:black}
    .fil1 {fill:#FF6669}
   ]]></style><style
       type="text/css"
       id="style3360-3"><![CDATA[
    .fil1 {fill:black}
    .fil0 {fill:#FEDFA3}
   ]]></style><style
       type="text/css"
       id="style3383-55"><![CDATA[
    .fil0 {fill:black}
    .fil1 {fill:#FF6669}
   ]]></style><style
       type="text/css"
       id="style6-4-0"><![CDATA[
    .fil0 {fill:black}
    .fil1 {fill:#FF6669}
   ]]></style><style
       id="style6-6-9-08"
       type="text/css"><![CDATA[
    .fil0 {fill:black}
    .fil1 {fill:#FF6669}
   ]]></style><style
       id="style3360-5-2"
       type="text/css"><![CDATA[
    .fil1 {fill:black}
    .fil0 {fill:#FEDFA3}
   ]]></style><style
       type="text/css"
       id="style6-68-0"><![CDATA[
    .fil0 {fill:black}
    .fil1 {fill:#FF6669}
   ]]></style><style
       id="style6-6-2-8"
       type="text/css"><![CDATA[
    .fil0 {fill:black}
    .fil1 {fill:#FF6669}
   ]]></style><style
       type="text/css"
       id="style3450-92"><![CDATA[
    .fil0 {fill:black}
    .fil1 {fill:#FEDFA3}
   ]]></style><style
       type="text/css"
       id="style3489-1"><![CDATA[
    .fil0 {fill:black}
    .fil1 {fill:#FF6669}
   ]]></style></defs><path
     style="clip-rule:evenodd;fill:#cccccc;fill-rule:evenodd;image-rendering:optimizeQuality;shape-rendering:geometricPrecision;text-rendering:geometricPrecision"
     d="m 282.65817,150.25761 a 132.39999,132.39999 0 0 1 -132.39999,132.4 132.39999,132.39999 0 0 1 -132.399995,-132.4 A 132.39999,132.39999 0 0 1 150.25818,17.85762 132.39999,132.39999 0 0 1 282.65817,150.25761 Z"
     id="circle4189" /><path
     id="path4191"
     d="m 150.25717,150.25763 c 0.4815,-33.009 -16.5315,-41.4765 -46.278,-49.941 C 76.577171,92.518127 50.768171,79.145627 57.345671,55.943627 c -11.2365,11.046 -20.364,23.4285 -27.0255,37.7175 1.9125,24.042003 30.7635,28.122003 59.166,25.891503 30.833999,-2.421 49.729499,-0.4065 60.770999,30.705 z"
     class="fil1"
     inkscape:connector-curvature="0"
     style="clip-rule:evenodd;fill:#b2b2b2;fill-rule:evenodd;image-rendering:optimizeQuality;shape-rendering:geometricPrecision;text-rendering:geometricPrecision" /><path
     id="path4193"
     d="m 150.25717,150.25763 c 23.682,-23.001 17.64,-41.0175 2.592,-68.037003 -13.863,-24.8895 -22.6575,-52.596 -1.599,-64.3515 -15.7575,-0.135 -30.9675,2.166 -45.7815,7.5615 -15.647999,18.351 1.8675,41.637 23.529,60.144 23.5155,20.091003 35.451,34.876503 21.2595,64.683003 z"
     class="fil1"
     inkscape:connector-curvature="0"
     style="clip-rule:evenodd;fill:#b2b2b2;fill-rule:evenodd;image-rendering:optimizeQuality;shape-rendering:geometricPrecision;text-rendering:geometricPrecision" /><path
     id="path4195"
     d="m 150.25717,150.25763 c 33.0105,0.4815 41.478,-16.5315 49.9425,-46.278 7.797,-27.402003 21.1695,-53.211003 44.373,-46.633503 -11.0475,-11.238 -23.43,-20.364 -37.719,-27.0255 -24.042,1.9125 -28.1205,30.7635 -25.8915,59.166 2.421,30.834003 0.4065,49.729503 -30.705,60.771003 z"
     class="fil1"
     inkscape:connector-curvature="0"
     style="clip-rule:evenodd;fill:#b2b2b2;fill-rule:evenodd;image-rendering:optimizeQuality;shape-rendering:geometricPrecision;text-rendering:geometricPrecision" /><path
     id="path4197"
     d="m 150.25717,150.25763 c 23.0025,23.682 41.019,17.64 68.0385,2.5905 24.8895,-13.863 52.596,-22.656 64.3515,-1.5975 0.135,-15.7575 -2.1675,-30.9675 -7.5615,-45.7815 -18.3525,-15.648003 -41.637,1.8675 -60.144,23.529 -20.091,23.5155 -34.8765,35.451 -64.6845,21.2595 z"
     class="fil1"
     inkscape:connector-curvature="0"
     style="clip-rule:evenodd;fill:#b2b2b2;fill-rule:evenodd;image-rendering:optimizeQuality;shape-rendering:geometricPrecision;text-rendering:geometricPrecision" /><path
     id="path4199"
     d="m 150.25717,150.25763 c -0.48,33.0105 16.5315,41.478 46.278,49.9425 27.4035,7.797 53.2125,21.1695 46.6335,44.373 11.238,-11.0475 20.3655,-23.43 27.0255,-37.719 -1.911,-24.042 -30.762,-28.122 -59.166,-25.8915 -30.834,2.421 -49.728,0.4065 -60.771,-30.705 z"
     class="fil1"
     inkscape:connector-curvature="0"
     style="clip-rule:evenodd;fill:#b2b2b2;fill-rule:evenodd;image-rendering:optimizeQuality;shape-rendering:geometricPrecision;text-rendering:geometricPrecision" /><path
     id="path4201"
     d="m 150.25717,150.25763 c -23.6805,23.0025 -17.6385,41.019 -2.5905,68.0385 13.863,24.8895 22.6575,52.596 1.599,64.3515 15.7575,0.1335 30.9675,-2.1675 45.7815,-7.5615 15.648,-18.3525 -1.869,-41.637 -23.5305,-60.1455 -23.514,-20.091 -35.4495,-34.875 -21.2595,-64.683 z"
     class="fil1"
     inkscape:connector-curvature="0"
     style="clip-rule:evenodd;fill:#b2b2b2;fill-rule:evenodd;image-rendering:optimizeQuality;shape-rendering:geometricPrecision;text-rendering:geometricPrecision" /><path
     id="path4203"
     d="m 150.25717,150.25763 c -33.009,-0.48 -41.4765,16.5315 -49.941,46.278 -7.796999,27.402 -21.170999,53.2125 -44.372999,46.6335 11.0475,11.238 23.4285,20.3655 37.719,27.0255 24.041999,-1.911 28.120499,-30.762 25.889999,-59.166 -2.421,-30.834 -0.4065,-49.728 30.705,-60.771 z"
     class="fil1"
     inkscape:connector-curvature="0"
     style="clip-rule:evenodd;fill:#b2b2b2;fill-rule:evenodd;image-rendering:optimizeQuality;shape-rendering:geometricPrecision;text-rendering:geometricPrecision" /><path
     id="path4205"
     d="m 150.25717,150.25763 c -23.001,-23.6805 -41.0175,-17.6385 -68.036999,-2.5905 -24.8895,13.863 -52.596,22.6575 -64.3515,1.599 -0.135,15.7575 2.1675,30.9675 7.5615,45.78 18.351,15.6495 41.637,-1.8675 60.144,-23.529 20.090999,-23.514 34.876499,-35.451 64.682999,-21.2595 z"
     class="fil1"
     inkscape:connector-curvature="0"
     style="clip-rule:evenodd;fill:#b2b2b2;fill-rule:evenodd;image-rendering:optimizeQuality;shape-rendering:geometricPrecision;text-rendering:geometricPrecision" /><rect
     id="rect4207"
     height="0.75"
     width="0.75"
     class="fil2"
     x="0.25717121"
     y="0.25762731"
     style="clip-rule:evenodd;fill:#000000;fill-rule:evenodd;image-rendering:optimizeQuality;shape-rendering:geometricPrecision;text-rendering:geometricPrecision" /><path
     style="clip-rule:evenodd;fill:#999999;fill-rule:evenodd;image-rendering:optimizeQuality;shape-rendering:geometricPrecision;text-rendering:geometricPrecision"
     d="m 158.17579,150.25761 a 7.9176102,7.9176102 0 0 1 -7.91761,7.91761 7.9176102,7.9176102 0 0 1 -7.91761,-7.91761 7.9176102,7.9176102 0 0 1 7.91761,-7.91761 7.9176102,7.9176102 0 0 1 7.91761,7.91761 z"
     id="circle4209" /><g
     style="clip-rule:evenodd;fill-rule:evenodd;image-rendering:optimizeQuality;shape-rendering:geometricPrecision;text-rendering:geometricPrecision"
     id="g3438"
     transform="translate(-5.1167117,1.3667494)"><g
       transform="translate(5.1167117,-1.3672264)"
       id="g3349"
       style="clip-rule:evenodd;fill-rule:evenodd;image-rendering:optimizeQuality;shape-rendering:geometricPrecision;text-rendering:geometricPrecision"><g
         id="Layer_x0020_1"><metadata
           id="CorelCorpID_0Corel-Layer" /><rect
           style="fill:#000000"
           y="0"
           x="0"
           class="fil0"
           width="0.75"
           height="0.75"
           id="rect10" /><rect
           style="fill:#000000"
           y="0"
           x="0"
           class="fil0"
           width="0.75"
           height="0.75"
           id="rect12" /><path
           style="fill:#ff6669"
           inkscape:connector-curvature="0"
           class="fil1"
           d="m 144.588,155.778 c -17.169,20.3595 -10.9455,37.542 2.8215,62.2605 13.863,24.8895 22.6575,52.596 1.599,64.3515 15.7575,0.1335 30.9675,-2.1675 45.7815,-7.5615 15.648,-18.3525 -1.869,-41.637 -23.5305,-60.1455 -21.51,-18.3795 -33.327,-32.319 -24.3225,-57.3795 -0.873,-0.3675 -1.668,-0.8865 -2.349,-1.5255 z"
           id="path14" /></g></g></g><g
     style="clip-rule:evenodd;fill-rule:evenodd;image-rendering:optimizeQuality;shape-rendering:geometricPrecision;text-rendering:geometricPrecision"
     id="g3462"
     transform="translate(-0.11074502,-0.0983095)"><g
       transform="translate(-9.4616898,-6.2576267)"
       id="g3417"
       style="clip-rule:evenodd;fill-rule:evenodd;image-rendering:optimizeQuality;shape-rendering:geometricPrecision;text-rendering:geometricPrecision"><g
         style="clip-rule:evenodd;fill-rule:evenodd;image-rendering:optimizeQuality;shape-rendering:geometricPrecision;text-rendering:geometricPrecision"
         id="g3373"
         transform="translate(9.4616898,6.2576267)"><g
           id="Layer_x0020_1-3"><metadata
             id="CorelCorpID_0Corel-Layer-0" /><path
             id="path3364"
             d="m 150,282.4 c -20.094,0 -39.141,-4.4865 -56.2005,-12.5025 23.6895,-2.196 27.714,-30.8805 25.4955,-59.127 -2.214,-28.2075 -0.7125,-46.419 23.376,-57.7725 0.435,1.062 1.0935,2.0085 1.917,2.7795 -17.169,20.3595 -10.9455,37.542 2.8215,62.2605 13.863,24.8895 22.6575,52.596 1.599,64.3515 l 1.3635,0.006 L 150,282.4 Z"
             class="fil0"
             inkscape:connector-curvature="0"
             style="fill:#fedfa3" /><rect
             id="rect3366"
             height="0.75"
             width="0.75"
             class="fil1"
             x="0"
             y="0"
             style="fill:#000000" /></g></g></g></g><g
     style="clip-rule:evenodd;fill-rule:evenodd;image-rendering:optimizeQuality;shape-rendering:geometricPrecision;text-rendering:geometricPrecision"
     id="g3487"
     transform="translate(0.18000063,-0.15065803)"><g
       transform="translate(0,5e-4)"
       id="g3396"
       style="clip-rule:evenodd;fill-rule:evenodd;image-rendering:optimizeQuality;shape-rendering:geometricPrecision;text-rendering:geometricPrecision"><g
         id="Layer_x0020_1-6"><metadata
           id="CorelCorpID_0Corel-Layer-2" /><rect
           style="fill:#000000"
           y="0"
           x="0"
           class="fil0"
           width="0.75"
           height="0.75"
           id="rect3387" /><path
           style="fill:#ff6669"
           inkscape:connector-curvature="0"
           class="fil1"
           d="m 141.912,150.33 c -26.5365,2.256 -34.2855,18.807 -42.03,46.02 -7.7955,27.402 -21.1695,53.2125 -44.3715,46.635 11.0475,11.2365 23.43,20.364 37.719,27.0255 24.042,-1.9125 28.1205,-30.7635 25.89,-59.169 -2.2125,-28.206 -0.7125,-46.4175 23.3745,-57.771 -0.357,-0.8775 -0.552,-1.806 -0.582,-2.7405 z"
           id="path3389" /></g></g></g><g
     style="clip-rule:evenodd;fill-rule:evenodd;image-rendering:optimizeQuality;shape-rendering:geometricPrecision;text-rendering:geometricPrecision"
     id="g3523"
     transform="translate(-0.01500104,0.03631147)"><g
       transform="translate(0,2.8007975e-4)"
       id="g3463"
       style="clip-rule:evenodd;fill-rule:evenodd;image-rendering:optimizeQuality;shape-rendering:geometricPrecision;text-rendering:geometricPrecision"><g
         id="Layer_x0020_1-0"><metadata
           id="CorelCorpID_0Corel-Layer-4" /><rect
           style="fill:#000000"
           y="0"
           x="0"
           class="fil0"
           width="0.75"
           height="0.75"
           id="rect3454" /><path
           style="fill:#fedfa3"
           inkscape:connector-curvature="0"
           class="fil1"
           d="m 56.379,243.621 c -14.2095,-14.208 -24.504,-30.849 -30.9,-48.5805 18.3045,15.198 41.433,-2.238 59.838,-23.781 18.3795,-21.5115 32.319,-33.327 57.381,-24.321 -0.444,1.0575 -0.648,2.193 -0.6105,3.321 -26.5365,2.256 -34.2855,18.8055 -42.03,46.0185 -7.797,27.4035 -21.1695,53.2125 -44.373,46.635 l 0.96,0.9675 -0.2655,-0.2595 z"
           id="path3456" /></g></g></g><g
     style="clip-rule:evenodd;fill-rule:evenodd;image-rendering:optimizeQuality;shape-rendering:geometricPrecision;text-rendering:geometricPrecision"
     id="g3561"
     transform="translate(0.74579924,0.17960355)"><g
       transform="translate(0,4.6879011e-4)"
       id="g3502"
       style="clip-rule:evenodd;fill-rule:evenodd;image-rendering:optimizeQuality;shape-rendering:geometricPrecision;text-rendering:geometricPrecision"><g
         id="Layer_x0020_1-6-3"><metadata
           id="CorelCorpID_0Corel-Layer-7" /><rect
           style="fill:#000000"
           y="0"
           x="0"
           class="fil0"
           width="0.75"
           height="0.75"
           id="rect3493" /><path
           style="fill:#ff6669"
           inkscape:connector-curvature="0"
           class="fil1"
           d="m 143.873,144.587 c -20.3595,-17.169 -37.542,-10.9455 -62.2605,2.8215 -24.8895,13.863 -52.596,22.6575 -64.3515,1.599 -0.1335,15.7575 2.1675,30.9675 7.5615,45.7815 18.3525,15.648 41.637,-1.869 60.1455,-23.5305 18.3795,-21.51 32.319,-33.327 57.3795,-24.3225 0.3675,-0.873 0.8865,-1.668 1.5255,-2.349 z"
           id="path3495" /></g></g></g></svg>